Intro to the tidyverse
…
##   english = col_character(),
##   ep_to_100 = col_character(),
##   gender = col_character(),
##   size = col_character(),
##   types = col_character(),
##   weight = col_character(),
##   attack = col_integer(),
##   speed = col_integer(),
##   hp = col_integer(),
##   attack_special = col_integer(),
##   defense_special = col_integer(),
##   defense = col_integer()
## )

## # A tibble: 802 x 17
##       german                              path    rn            generation
##        <chr>                             <chr> <int>                 <chr>
##  1   Bisasam   https://www.pokewiki.de/Bisasam     1 1. Generation<U+200D>
##  2 Bisaknosp https://www.pokewiki.de/Bisaknosp     2 1. Generation<U+200D>
##  3  Bisaflor  https://www.pokewiki.de/Bisaflor     3 1. Generation<U+200D>
##  4  Glumanda  https://www.pokewiki.de/Glumanda     4 1. Generation<U+200D>
##  5   Glutexo   https://www.pokewiki.de/Glutexo     5 1. Generation<U+200D>
##  6    Glurak    https://www.pokewiki.de/Glurak     6 1. Generation<U+200D>
##  7   Schiggy   https://www.pokewiki.de/Schiggy     7 1. Generation<U+200D>
##  8  Schillok  https://www.pokewiki.de/Schillok     8 1. Generation<U+200D>
##  9    Turtok    https://www.pokewiki.de/Turtok     9 1. Generation<U+200D>
## 10     Raupy     https://www.pokewiki.de/Raupy    10 1. Generation<U+200D>
## # ... with 792 more rows, and 13 more variables: color <chr>,
## #   english <chr>, ep_to_100 <chr>, gender <chr>, size <chr>, types <chr>,
## #   weight <chr>, attack <int>, speed <int>, hp <int>,
## #   attack_special <int>, defense_special <int>, defense <int>
…
           ep_to_100 = col_character(),
           gender = col_character(),
           size = col_character(),
           types = col_character(),
           weight = col_character(),
           attack = col_integer(),
           speed = col_integer(),
           hp = col_integer(),
           attack_special = col_integer(),
           defense_special = col_integer(),
           defense = col_integer()
        )
) 

## # A tibble: 802 x 17
##       german                              path    rn            generation
##        <chr>                             <chr> <int>                 <chr>
##  1   Bisasam   https://www.pokewiki.de/Bisasam     1 1. Generation<U+200D>
##  2 Bisaknosp https://www.pokewiki.de/Bisaknosp     2 1. Generation<U+200D>
##  3  Bisaflor  https://www.pokewiki.de/Bisaflor     3 1. Generation<U+200D>
##  4  Glumanda  https://www.pokewiki.de/Glumanda     4 1. Generation<U+200D>
##  5   Glutexo   https://www.pokewiki.de/Glutexo     5 1. Generation<U+200D>
##  6    Glurak    https://www.pokewiki.de/Glurak     6 1. Generation<U+200D>
##  7   Schiggy   https://www.pokewiki.de/Schiggy     7 1. Generation<U+200D>
##  8  Schillok  https://www.pokewiki.de/Schillok     8 1. Generation<U+200D>
##  9    Turtok    https://www.pokewiki.de/Turtok     9 1. Generation<U+200D>
## 10     Raupy     https://www.pokewiki.de/Raupy    10 1. Generation<U+200D>
## # ... with 792 more rows, and 13 more variables: color <chr>,
## #   english <chr>, ep_to_100 <chr>, gender <chr>, size <chr>, types <chr>,
## #   weight <chr>, attack <int>, speed <int>, hp <int>,
## #   attack_special <int>, defense_special <int>, defense <int>
…
pokemon

## # A tibble: 802 x 17
##       german                              path    rn generation color
##        <chr>                             <chr> <int>      <dbl> <chr>
##  1   Bisasam   https://www.pokewiki.de/Bisasam     1          1  Grn
##  2 Bisaknosp https://www.pokewiki.de/Bisaknosp     2          1  Grn
##  3  Bisaflor  https://www.pokewiki.de/Bisaflor     3          1  Grn
##  4  Glumanda  https://www.pokewiki.de/Glumanda     4          1   Rot
##  5   Glutexo   https://www.pokewiki.de/Glutexo     5          1   Rot
##  6    Glurak    https://www.pokewiki.de/Glurak     6          1   Rot
##  7   Schiggy   https://www.pokewiki.de/Schiggy     7          1  Blau
##  8  Schillok  https://www.pokewiki.de/Schillok     8          1  Blau
##  9    Turtok    https://www.pokewiki.de/Turtok     9          1  Blau
## 10     Raupy     https://www.pokewiki.de/Raupy    10          1  Grn
## # ... with 792 more rows, and 12 more variables: english <chr>,
## #   ep_to_100 <dbl>, gender <chr>, size <dbl>, types <chr>, weight <dbl>,
## #   attack <int>, speed <int>, hp <int>, attack_special <int>,
## #   defense_special <int>, defense <int>
…
Flow of a typical data science project - source: http://r4ds.had.co.nz/introduction.html

The whole philosophy of tidy data can be found in Hadley Wickhams Tidy data The Journal of Statistical Software, 2014, Volume 59, Issue 10 - http://www.jstatsoft.org/v59/i10/ (accessed 24.9.2017).

In the case of the pokemon data-set we only need to seperate the gender and the types column into multiple columns:

pokemon %>% select(gender, types) # select will be explained later on

## # A tibble: 802 x 2
##                           gender                             types
##                            <chr>                             <chr>
##  1 87,5% <U+2642> 12,5% <U+2640>                      Pflanze Gift
##  2 87,5% <U+2642> 12,5% <U+2640>                      Pflanze Gift
##  3 87,5% <U+2642> 12,5% <U+2640>                      Pflanze Gift
##  4 87,5% <U+2642> 12,5% <U+2640>                             Feuer
##  5 87,5% <U+2642> 12,5% <U+2640>                             Feuer
##  6 87,5% <U+2642> 12,5% <U+2640> Feuer Flug  Feuer Drache (Mega X)
##  7 87,5% <U+2642> 12,5% <U+2640>                            Wasser
##  8 87,5% <U+2642> 12,5% <U+2640>                            Wasser
##  9 87,5% <U+2642> 12,5% <U+2640>                            Wasser
## 10     50% <U+2642> 50% <U+2640>                             Kfer
## # ... with 792 more rows

This can easily be done via seperate as follows.

pokemon %>% 
  select(gender, types) %>% # select will be explained later on
  separate(types, c("type_1", "type_2"), extra = "drop", fill = "right") %>% 
  separate(gender, c("male", "female"), extra = "drop", sep = "[^[:alnum:],]+")

## # A tibble: 802 x 4
##     male female  type_1 type_2
##  * <chr>  <chr>   <chr>  <chr>
##  1  87,5   12,5 Pflanze   Gift
##  2  87,5   12,5 Pflanze   Gift
##  3  87,5   12,5 Pflanze   Gift
##  4  87,5   12,5   Feuer   <NA>
##  5  87,5   12,5   Feuer   <NA>
##  6  87,5   12,5   Feuer   Flug
##  7  87,5   12,5  Wasser   <NA>
##  8  87,5   12,5  Wasser   <NA>
##  9  87,5   12,5  Wasser   <NA>
## 10    50     50   Kfer   <NA>
## # ... with 792 more rows
…
5 verbs solve 90% of data manipulation challenges - source: https://twitter.com/ervance/status/888058950238777344/photo/1

Inside shese verbs you can use the columns of the dataset as if they were variables.

So lets have a look at them

select

select() keeps only the variables you mention

We have used select once above to select only the gender and the types column. Lets say we only want to have the name, the hp and size of the pokemon. We can use:

pokemon %>% select(german, english, hp, size)

## # A tibble: 802 x 4
##       german    english    hp  size
##  *     <chr>      <chr> <int> <dbl>
##  1   Bisasam  Bulbasaur    45   0.7
##  2 Bisaknosp    Ivysaur    60   1.0
##  3  Bisaflor   Venusaur    80   2.0
##  4  Glumanda Charmander    39   0.6
##  5   Glutexo Charmeleon    58   1.1
##  6    Glurak  Charizard    78   1.7
##  7   Schiggy   Squirtle    44   0.5
##  8  Schillok  Wartortle    59   1.0
##  9    Turtok  Blastoise    79   1.6
## 10     Raupy   Caterpie    45   0.3
## # ... with 792 more rows

There are some select helpers see ?select_helpers like starts_with:

pokemon %>% select(starts_with("type"))

## # A tibble: 802 x 2
##     type_1 type_2
##  *   <chr>  <chr>
##  1 Pflanze   Gift
##  2 Pflanze   Gift
##  3 Pflanze   Gift
##  4   Feuer   <NA>
##  5   Feuer   <NA>
##  6   Feuer   Flug
##  7  Wasser   <NA>
##  8  Wasser   <NA>
##  9  Wasser   <NA>
## 10   Kfer   <NA>
## # ... with 792 more rows

We can use select to reorder the columns and make sure that we do not drop a variable accidently with everything() which selects all not previously selected columns:

pokemon <- pokemon %>% 
  select(rn, german, english, color, type_1, type_2, size, weight, 
         attack, speed, hp, defense, attack_special, defense_special, 
         ep_to_100, male, female, path, everything())

pokemon

## # A tibble: 802 x 19
##       rn    german    english color  type_1 type_2  size weight attack
##  * <int>     <chr>      <chr> <chr>   <chr>  <chr> <dbl>  <dbl>  <int>
##  1     1   Bisasam  Bulbasaur  Grn Pflanze   Gift   0.7    6.9     49
##  2     2 Bisaknosp    Ivysaur  Grn Pflanze   Gift   1.0   13.0     62
##  3     3  Bisaflor   Venusaur  Grn Pflanze   Gift   2.0  100.0     82
##  4     4  Glumanda Charmander   Rot   Feuer   <NA>   0.6    8.5     52
##  5     5   Glutexo Charmeleon   Rot   Feuer   <NA>   1.1   19.0     64
##  6     6    Glurak  Charizard   Rot   Feuer   Flug   1.7   90.5     84
##  7     7   Schiggy   Squirtle  Blau  Wasser   <NA>   0.5    9.0     48
##  8     8  Schillok  Wartortle  Blau  Wasser   <NA>   1.0   22.5     63
##  9     9    Turtok  Blastoise  Blau  Wasser   <NA>   1.6   85.5     83
## 10    10     Raupy   Caterpie  Grn   Kfer   <NA>   0.3    2.9     30
## # ... with 792 more rows, and 10 more variables: speed <int>, hp <int>,
## #   defense <int>, attack_special <int>, defense_special <int>,
## #   ep_to_100 <dbl>, male <chr>, female <chr>, path <chr>,
## #   generation <dbl>
…
Exercise

Select only the Pokemon names (german and english)

Select the names, attack, speed and size

Select all variables that ends_with attack

filter

To filter the dataset use the filter verb. Lets say we just want pokemon from generation 1 we can use:

pokemon %>% filter(generation == 1)

## # A tibble: 151 x 19
##       rn    german    english color  type_1 type_2  size weight attack
##    <int>     <chr>      <chr> <chr>   <chr>  <chr> <dbl>  <dbl>  <int>
##  1     1   Bisasam  Bulbasaur  Grn Pflanze   Gift   0.7    6.9     49
##  2     2 Bisaknosp    Ivysaur  Grn Pflanze   Gift   1.0   13.0     62
##  3     3  Bisaflor   Venusaur  Grn Pflanze   Gift   2.0  100.0     82
##  4     4  Glumanda Charmander   Rot   Feuer   <NA>   0.6    8.5     52
##  5     5   Glutexo Charmeleon   Rot   Feuer   <NA>   1.1   19.0     64
##  6     6    Glurak  Charizard   Rot   Feuer   Flug   1.7   90.5     84
##  7     7   Schiggy   Squirtle  Blau  Wasser   <NA>   0.5    9.0     48
##  8     8  Schillok  Wartortle  Blau  Wasser   <NA>   1.0   22.5     63
##  9     9    Turtok  Blastoise  Blau  Wasser   <NA>   1.6   85.5     83
## 10    10     Raupy   Caterpie  Grn   Kfer   <NA>   0.3    2.9     30
## # ... with 141 more rows, and 10 more variables: speed <int>, hp <int>,
## #   defense <int>, attack_special <int>, defense_special <int>,
## #   ep_to_100 <dbl>, male <chr>, female <chr>, path <chr>,
## #   generation <dbl>
…
pokemon %>% filter(color == "Rot" | color == "Grn")

## # A tibble: 167 x 19
##       rn    german    english color  type_1  type_2  size weight attack
##    <int>     <chr>      <chr> <chr>   <chr>   <chr> <dbl>  <dbl>  <int>
##  1     1   Bisasam  Bulbasaur  Grn Pflanze    Gift   0.7    6.9     49
##  2     2 Bisaknosp    Ivysaur  Grn Pflanze    Gift   1.0   13.0     62
##  3     3  Bisaflor   Venusaur  Grn Pflanze    Gift   2.0  100.0     82
##  4     4  Glumanda Charmander   Rot   Feuer    <NA>   0.6    8.5     52
##  5     5   Glutexo Charmeleon   Rot   Feuer    <NA>   1.1   19.0     64
##  6     6    Glurak  Charizard   Rot   Feuer    Flug   1.7   90.5     84
##  7    10     Raupy   Caterpie  Grn   Kfer    <NA>   0.3    2.9     30
##  8    11    Safcon    Metapod  Grn   Kfer    <NA>   0.7    9.9     20
##  9    45    Giflor  Vileplume   Rot Pflanze    Gift   1.2   18.6     80
## 10    46     Paras      Paras   Rot   Kfer Pflanze   0.3    5.4     70
## # ... with 157 more rows, and 10 more variables: speed <int>, hp <int>,
## #   defense <int>, attack_special <int>, defense_special <int>,
## #   ep_to_100 <dbl>, male <chr>, female <chr>, path <chr>,
## #   generation <dbl>

# the above is equivalent to
pokemon %>% filter(color %in% c("Rot", "Grn"))

## # A tibble: 167 x 19
##       rn    german    english color  type_1  type_2  size weight attack
##    <int>     <chr>      <chr> <chr>   <chr>   <chr> <dbl>  <dbl>  <int>
##  1     1   Bisasam  Bulbasaur  Grn Pflanze    Gift   0.7    6.9     49
##  2     2 Bisaknosp    Ivysaur  Grn Pflanze    Gift   1.0   13.0     62
##  3     3  Bisaflor   Venusaur  Grn Pflanze    Gift   2.0  100.0     82
##  4     4  Glumanda Charmander   Rot   Feuer    <NA>   0.6    8.5     52
##  5     5   Glutexo Charmeleon   Rot   Feuer    <NA>   1.1   19.0     64
##  6     6    Glurak  Charizard   Rot   Feuer    Flug   1.7   90.5     84
##  7    10     Raupy   Caterpie  Grn   Kfer    <NA>   0.3    2.9     30
##  8    11    Safcon    Metapod  Grn   Kfer    <NA>   0.7    9.9     20
##  9    45    Giflor  Vileplume   Rot Pflanze    Gift   1.2   18.6     80
## 10    46     Paras      Paras   Rot   Kfer Pflanze   0.3    5.4     70
## # ... with 157 more rows, and 10 more variables: speed <int>, hp <int>,
## #   defense <int>, attack_special <int>, defense_special <int>,
## #   ep_to_100 <dbl>, male <chr>, female <chr>, path <chr>,
## #   generation <dbl>
…
Mutate lets you edit or create columns in your data.

The above created columns male and female are of type character. To fix this we can do:

pokemon <- pokemon %>% 
  mutate(
    male = parse_number(male, locale = locale(decimal_mark = ",")),
    female = parse_number(female, locale = locale(decimal_mark = ","))
  )

pokemon %>% 
  select(male, female)

## # A tibble: 802 x 2
##     male female
##    <dbl>  <dbl>
##  1  87.5   12.5
##  2  87.5   12.5
##  3  87.5   12.5
##  4  87.5   12.5
##  5  87.5   12.5
##  6  87.5   12.5
##  7  87.5   12.5
##  8  87.5   12.5
##  9  87.5   12.5
## 10  50.0   50.0
## # ... with 792 more rows

This overwrites the columns in place.

To add a new variable we can also mutate as follows:

pokemon <- pokemon %>% mutate(dual_type = !is.na(type_2))

pokemon %>% select(german, english, type_1, type_2, dual_type)

## # A tibble: 802 x 5
##       german    english  type_1 type_2 dual_type
##        <chr>      <chr>   <chr>  <chr>     <lgl>
##  1   Bisasam  Bulbasaur Pflanze   Gift      TRUE
##  2 Bisaknosp    Ivysaur Pflanze   Gift      TRUE
##  3  Bisaflor   Venusaur Pflanze   Gift      TRUE
##  4  Glumanda Charmander   Feuer   <NA>     FALSE
##  5   Glutexo Charmeleon   Feuer   <NA>     FALSE
##  6    Glurak  Charizard   Feuer   Flug      TRUE
##  7   Schiggy   Squirtle  Wasser   <NA>     FALSE
##  8  Schillok  Wartortle  Wasser   <NA>     FALSE
##  9    Turtok  Blastoise  Wasser   <NA>     FALSE
## 10     Raupy   Caterpie   Kfer   <NA>     FALSE
## # ... with 792 more rows
Exercise

Compute the difference between attack and defense and name it diff_att_def

arrange

To arrange/order the data so that it is more compelling we can use arrange

Lets say we want the pokemon ordered by hp we can use:

pokemon %>% 
  arrange(hp) %>% 
  select(rn, german, english, hp, speed)

## # A tibble: 802 x 5
##       rn     german   english    hp speed
##    <int>      <chr>     <chr> <int> <int>
##  1   292   Ninjatom  Shedinja     1    40
##  2    50      Digda   Diglett    10    95
##  3   129   Karpador  Magikarp    20    80
##  4   172      Pichu     Pichu    20    60
##  5   213   Pottrott   Shuckle    20     5
##  6   349   Barschwa    Feebas    20    80
##  7   355 Zwirrlicht   Duskull    20    25
##  8   439  Pantimimi  Mime Jr.    20    60
##  9    63       Abra      Abra    25    90
## 10    81  Magnetilo Magnemite    25    45
## # ... with 792 more rows

To arrange the data in a descending order, wrap the variable in desc(.). To order by multiple columns just use multiple arguments to arrange:

pokemon %>% 
  arrange(hp, desc(speed)) %>% 
  select(rn, german, english, hp, speed)

## # A tibble: 802 x 5
##       rn     german  english    hp speed
##    <int>      <chr>    <chr> <int> <int>
##  1   292   Ninjatom Shedinja     1    40
##  2    50      Digda  Diglett    10    95
##  3   129   Karpador Magikarp    20    80
##  4   349   Barschwa   Feebas    20    80
##  5   172      Pichu    Pichu    20    60
##  6   439  Pantimimi Mime Jr.    20    60
##  7   355 Zwirrlicht  Duskull    20    25
##  8   213   Pottrott  Shuckle    20     5
##  9    63       Abra     Abra    25    90
## 10   767   Reilaus   Wimpod    25    80
## # ... with 792 more rows
…
pokemon2

## # A tibble: 802 x 17
##       german                              path    rn generation color
##        <chr>                             <chr> <int>      <dbl> <chr>
##  1   Bisasam   https://www.pokewiki.de/Bisasam     1          1  Grn
##  2 Bisaknosp https://www.pokewiki.de/Bisaknosp     2          1  Grn
##  3  Bisaflor  https://www.pokewiki.de/Bisaflor     3          1  Grn
##  4  Glumanda  https://www.pokewiki.de/Glumanda     4          1   Rot
##  5   Glutexo   https://www.pokewiki.de/Glutexo     5          1   Rot
##  6    Glurak    https://www.pokewiki.de/Glurak     6          1   Rot
##  7   Schiggy   https://www.pokewiki.de/Schiggy     7          1  Blau
##  8  Schillok  https://www.pokewiki.de/Schillok     8          1  Blau
##  9    Turtok    https://www.pokewiki.de/Turtok     9          1  Blau
## 10     Raupy     https://www.pokewiki.de/Raupy    10          1  Grn
## # ... with 792 more rows, and 12 more variables: english <chr>,
## #   ep_to_100 <dbl>, gender <chr>, size <dbl>, types <chr>, weight <dbl>,
## #   attack <int>, speed <int>, hp <int>, attack_special <int>,
## #   defense_special <int>, defense <int>
…
